<svg id="Group_77" data-name="Group 77" xmlns="http://www.w3.org/2000/svg" width="194.276" height="53.851" viewBox="0 0 194.276 53.851">
  <g id="Group_64" data-name="Group 64" transform="translate(132.162 49.494)">
    <path id="Path_222" data-name="Path 222" d="M2532.23-217.92h-3.125v-.123l.411-.617v-2.631l-.411-.617v-.123h3.083v1.315h-.082l-.493-.288h-.946v.658h.74l.329-.123h.082v1.069h-.082l-.329-.123h-.74v.658h1.11l.329-.288h.124Z" transform="translate(-2529.106 222.154)" fill="#1d1d1b"/>
    <path id="Path_223" data-name="Path 223" d="M2564.643-221.377a1.417,1.417,0,0,0-.987-.37c-.164,0-.37.082-.37.247s.288.288.74.493c.7.329.986.7.986,1.233,0,.781-.534,1.315-1.644,1.315a2.469,2.469,0,0,1-1.274-.411v-1.151h.082a1.665,1.665,0,0,0,1.233.576c.205,0,.411-.082.411-.288,0-.247-.329-.37-.863-.617a1.134,1.134,0,0,1-.823-1.151c0-.658.493-1.274,1.562-1.274a2.116,2.116,0,0,1,1.11.247v1.151Z" transform="translate(-2556.626 222.775)" fill="#1d1d1b"/>
    <path id="Path_224" data-name="Path 224" d="M2594.567-221h-.124l-.411-.288h-.658v2.508l.329.535v.082h-1.768v-.082l.329-.535v-2.508h-.617l-.411.288h-.123v-1.274h3.494V-221Z" transform="translate(-2580.837 222.361)" fill="#1d1d1b"/>
    <path id="Path_225" data-name="Path 225" d="M2623.679-206.493a.887.887,0,0,1-.9.9.912.912,0,0,1-.9-.9.886.886,0,0,1,.9-.9A.912.912,0,0,1,2623.679-206.493Z" transform="translate(-2606.496 209.946)" fill="#1d1d1b"/>
  </g>
  <g id="Group_65" data-name="Group 65" transform="translate(29.762 49.535)">
    <path id="Path_226" data-name="Path 226" d="M1912.822-218.66l.411.617v.123h-1.973v-.123l.411-.617v-2.631l-.411-.617v-.123h1.809c.9,0,1.727.411,1.727,1.439s-.822,1.439-1.727,1.439h-.246Zm0-1.521h.206c.329,0,.658-.041.658-.452,0-.37-.329-.452-.658-.452h-.206Z" transform="translate(-1911.26 222.113)" fill="#1d1d1b"/>
    <path id="Path_227" data-name="Path 227" d="M1945.563-218.66l.411.617v.123H1944v-.123l.411-.617v-2.631l-.411-.617v-.123h1.973v.123l-.411.617Z" transform="translate(-1938.574 222.113)" fill="#1d1d1b"/>
    <path id="Path_228" data-name="Path 228" d="M1971.47-219.443v1.315h-3.618l-.041-.123,1.891-3h-1.11l-.411.329h-.123v-1.357h3.535l.041.123-1.932,3h1.234l.411-.329h.123Z" transform="translate(-1958.438 222.32)" fill="#1d1d1b"/>
    <path id="Path_229" data-name="Path 229" d="M2005.947-219.443v1.315h-3.618l-.041-.123,1.891-3h-1.11l-.411.329h-.123v-1.357h3.535l.041.123-1.932,3h1.233l.411-.329h.123Z" transform="translate(-1987.201 222.32)" fill="#1d1d1b"/>
    <path id="Path_230" data-name="Path 230" d="M2040.632-217.92h-3.124v-.123l.411-.617v-2.631l-.411-.617v-.123h3.083v1.315h-.082l-.493-.288h-.945v.658h.74l.329-.123h.082v1.069h-.082l-.329-.123h-.74v.658h1.11l.329-.288h.123Z" transform="translate(-2016.584 222.113)" fill="#1d1d1b"/>
    <path id="Path_231" data-name="Path 231" d="M2073.284-217.92h-1.48l-.9-2.055v-.082h.123c.329,0,.657-.082.657-.493,0-.37-.329-.493-.657-.493h-.206v2.59l.247.452v.082h-1.809v-.123l.411-.617v-2.631l-.411-.617v-.123h1.809c.9,0,1.85.329,1.85,1.357a1.031,1.031,0,0,1-.781,1.069l.657,1.028.493.576v.082Z" transform="translate(-2043.07 222.113)" fill="#1d1d1b"/>
    <path id="Path_232" data-name="Path 232" d="M2106.535-218.66l.411.617v.123h-1.973v-.123l.411-.617v-2.631l-.411-.617v-.123h1.973v.123l-.411.617Z" transform="translate(-2072.867 222.113)" fill="#1d1d1b"/>
    <path id="Path_233" data-name="Path 233" d="M2133.017-218.334h-1.809v-.123l.288-.411-.082-.164H2130.1l-.082.206.247.37v.123h-1.727v-.082l.329-.411,1.768-3.7h.288l1.809,3.7.329.411v.082Zm-2.3-2.384-.329.781H2131Z" transform="translate(-2092.525 222.527)" fill="#1d1d1b"/>
  </g>
  <g id="Group_66" data-name="Group 66" transform="translate(78.598)">
    <path id="Path_234" data-name="Path 234" d="M2262.557-384.74h-25.939v27.83l-3.412,2.138v1.192h6.084v-28.406h20.6v28.406h6v-1.192l-3.329-2.138Z" transform="translate(-2228.684 407.39)" fill="#1d1d1b"/>
    <path id="Path_235" data-name="Path 235" d="M2243.083-506.4a16.376,16.376,0,0,0-16.279-15,16.347,16.347,0,0,0-16.279,15h-4.6l1.4,2.754h38.971l1.4-2.754Zm-29.885,0a13.752,13.752,0,0,1,13.607-12.332,13.753,13.753,0,0,1,13.607,12.332Z" transform="translate(-2205.922 521.405)" fill="#1d1d1b"/>
  </g>
  <g id="Group_67" data-name="Group 67" transform="translate(0 22.609)">
    <path id="Path_236" data-name="Path 236" d="M1740.894-382.507h-9.208v.411l2.59,2.1v13.812l-2.59,2.1v.452h8.057v-.452l-2.59-2.1v-4.275h3.741a6.144,6.144,0,0,0,6.454-6.125A6.16,6.16,0,0,0,1740.894-382.507Zm-.37,9.66h-3.371v-7.317h3.371a3.624,3.624,0,0,1,3.823,3.618A3.64,3.64,0,0,1,1740.524-372.847Z" transform="translate(-1731.686 382.918)" fill="#1d1d1b"/>
    <path id="Path_237" data-name="Path 237" d="M1884.375-384.988a9.879,9.879,0,0,0-10.072,9.825,9.966,9.966,0,0,0,10.072,9.866,10,10,0,0,0,10.112-9.866A9.915,9.915,0,0,0,1884.375-384.988Zm0,17.1a7.065,7.065,0,0,1-7.07-7.276,7.007,7.007,0,0,1,7.07-7.235,6.991,6.991,0,0,1,7.112,7.235A7.049,7.049,0,0,1,1884.375-367.887Z" transform="translate(-1850.666 384.988)" fill="#1d1d1b"/>
    <path id="Path_238" data-name="Path 238" d="M2060.2-366.188l-4.974-5.714a5.066,5.066,0,0,0,4.933-5.344,5.5,5.5,0,0,0-5.8-5.508h-10.153v.452l2.59,2.1v13.812l-2.59,2.1v.452h8.345v-.411l-2.877-2.055v-14.059h3.658c2.343,0,3.865,1.069,3.865,3.165,0,2.014-1.521,3.124-3.865,3.124h-2.261v.329l7.194,9.866h4.768v-.329Z" transform="translate(-1992.41 383.125)" fill="#1d1d1b"/>
  </g>
  <g id="Group_68" data-name="Group 68" transform="translate(131.463 22.609)">
    <path id="Path_239" data-name="Path 239" d="M2524.889-377.862h.411l2.014-2.3h4.275v13.936l-2.261,2.179v.37h7.358v-.37l-2.261-2.179v-13.936h4.316l2.055,2.3h.411v-4.645h-16.32Z" transform="translate(-2524.889 382.918)" fill="#1d1d1b"/>
    <path id="Path_240" data-name="Path 240" d="M2668.935-384.988h-.822l-7.729,16.937-2.3,1.973v.329h7.687v-.411l-2.22-1.809,4.851-11.469,4.974,11.551-2.138,1.726v.411h7.729v-.329l-2.343-1.973Z" transform="translate(-2636.008 384.988)" fill="#1d1d1b"/>
    <path id="Path_241" data-name="Path 241" d="M2836.461-376.6c-2.466-1.233-3.33-1.85-3.33-3.289,0-1.6,1.233-2.508,2.877-2.508a5.8,5.8,0,0,1,4.645,2.261h.329l-.041-3.412a9.935,9.935,0,0,0-4.933-1.439c-3.412,0-5.8,2.3-5.8,5.139,0,2.96,1.686,3.988,4.193,5.262,3.206,1.6,4.728,2.549,4.728,4.193,0,1.685-1.233,2.467-3.289,2.467a8.246,8.246,0,0,1-5.8-3.124h-.329v3.494a9.953,9.953,0,0,0,5.879,2.22c3.988,0,6.413-2.384,6.413-5.18C2842.01-373.519,2839.75-374.958,2836.461-376.6Z" transform="translate(-2779.197 384.988)" fill="#1d1d1b"/>
  </g>
  <g id="Group_69" data-name="Group 69" transform="translate(151.4 49.535)">
    <path id="Path_242" data-name="Path 242" d="M2647.856-218.99h-1.028c.946-.9,1.48-1.357,1.48-2.014,0-.863-.74-1.274-1.562-1.274a2.137,2.137,0,0,0-1.357.452v.986h.124a1.371,1.371,0,0,1,1.028-.493c.328,0,.657.164.657.493a1.263,1.263,0,0,1-.493.863c-.411.452-.946.987-1.521,1.6v.206h3.166v-1.192h-.124Z" transform="translate(-2645.184 222.32)" fill="#1d1d1b"/>
    <path id="Path_243" data-name="Path 243" d="M2678.367-222.527a2.131,2.131,0,0,0-2.179,2.138,2.14,2.14,0,0,0,2.179,2.179,2.14,2.14,0,0,0,2.179-2.179A2.156,2.156,0,0,0,2678.367-222.527Zm0,3.289a1.03,1.03,0,0,1-1.028-1.151,1.052,1.052,0,0,1,1.028-1.151,1.009,1.009,0,0,1,1.028,1.151A1.03,1.03,0,0,1,2678.367-219.238Z" transform="translate(-2671.05 222.527)" fill="#1d1d1b"/>
    <path id="Path_244" data-name="Path 244" d="M2713.919-222.031h-.124l-1.891.534v.123l.9.411v2.384l-.9.493v.164h2.878v-.164l-.863-.493Z" transform="translate(-2700.847 222.113)" fill="#1d1d1b"/>
    <path id="Path_245" data-name="Path 245" d="M2743.263-219.567l-.411.329h-1.028c.945-.9,1.48-1.357,1.48-2.014,0-.863-.74-1.274-1.562-1.274a2.138,2.138,0,0,0-1.357.452v.986h.124a1.369,1.369,0,0,1,1.028-.493c.329,0,.658.164.658.493a1.263,1.263,0,0,1-.494.863c-.411.452-.945.987-1.521,1.6v.206h3.165v-1.192h-.082Z" transform="translate(-2724.436 222.527)" fill="#1d1d1b"/>
    <path id="Path_246" data-name="Path 246" d="M2771.387-204.917a.693.693,0,0,0-.7.7.693.693,0,0,0,.7.7.693.693,0,0,0,.7-.7A.693.693,0,0,0,2771.387-204.917Z" transform="translate(-2749.887 207.836)" fill="#1d1d1b"/>
  </g>
</svg>
